{
  "configs": [
    "personquerytocsv.xml"
  ],
  "secureProperties": [],
  "redeploymentEnabled": true,
  "name": "personquerytocsv",
  "minMuleVersion": "4.1.1",
  "requiredProduct": "MULE_EE",
  "classLoaderModelLoaderDescriptor": {
    "id": "mule",
    "attributes": {}
  },
  "bundleDescriptorLoader": {
    "id": "mule",
    "attributes": {}
  }
}